<svg id="フロー" xmlns="http://www.w3.org/2000/svg" width="745" height="80" viewBox="0 0 745 80">
  <defs>
    <style>
      .cls-1 {
        fill: #ddd;
      }

      .cls-2 {
        fill: #ededed;
        opacity: 0.6;
      }

      .cls-2, .cls-3, .cls-4 {
        fill-rule: evenodd;
      }

      .cls-3 {
        fill: #f5f5f5;
      }

      .cls-4 {
        fill: #72d102;
      }

      .cls-5, .cls-6 {
        font-size: 16px;
        font-family: NotoSansCJKjp;
      }

      .cls-5 {
        fill: #fff;
      }
    </style>
  </defs>
  <rect id="長方形_2_のコピー_12" data-name="長方形 2 のコピー 12" class="cls-1" width="745" height="80"/>
  <path id="長方形_2_のコピー_15" data-name="長方形 2 のコピー 15" class="cls-2" d="M621,1662H812l30,40.02L812,1742H621v-80Z" transform="translate(-268 -1662)"/>
  <path id="長方形_2_のコピー_14" data-name="長方形 2 のコピー 14" class="cls-3" d="M434,1662H625l30,40.02L625,1742H434v-80Z" transform="translate(-268 -1662)"/>
  <path id="長方形_2_のコピー_13" data-name="長方形 2 のコピー 13" class="cls-4" d="M269,1662H440l30,40.02L440,1742H269v-80Z" transform="translate(-268 -1662)"/>
  <text id="取引情報" class="cls-5" x="57" y="46.711">取引情報</text>
  <text id="お支払い" class="cls-6" x="243" y="45.712">お支払い</text>
  <text id="納品連絡" class="cls-6" x="434.001" y="46.711">納品連絡</text>
  <text id="受け取り連絡" class="cls-6" x="609" y="46.711">受け取り連絡</text>
</svg>
